2019-01-01_00:00:00;0.9149142718460462
2019-01-07_23:00:00;0.9149142718460462
2019-01-08_00:00:00;0.8535697460276671
2019-01-14_23:00:00;0.8535697460276671
2019-01-15_00:00:00;0.9419104315673762
2019-01-21_23:00:00;0.9419104315673762
2019-01-22_00:00:00;0.9533741630619441
2019-01-28_23:00:00;0.9533741630619441
2019-01-29_00:00:00;0.9229517324082401
2019-02-04_23:00:00;0.9229517324082401
2019-02-05_00:00:00;0.952203520493383
2019-02-11_23:00:00;0.952203520493383
2019-02-12_00:00:00;0.9874798349679501
2019-02-18_23:00:00;0.9874798349679501
2019-02-19_00:00:00;1.0
2019-02-25_23:00:00;1.0
2019-02-26_00:00:00;0.9320170742501463
2019-03-04_23:00:00;0.9320170742501463
2019-03-05_00:00:00;0.8283295501591789
2019-03-11_23:00:00;0.8283295501591789
2019-03-12_00:00:00;0.746284637457707
2019-03-18_23:00:00;0.746284637457707
2019-03-19_00:00:00;0.9737604751095693
2019-03-25_23:00:00;0.9737604751095693
2019-03-26_00:00:00;0.943509358002484
2019-04-01_23:00:00;0.943509358002484
2019-04-02_00:00:00;0.9459362999129156
2019-04-08_23:00:00;0.9459362999129156
2019-04-09_00:00:00;0.9328022613388154
2019-04-15_23:00:00;0.9328022613388154
2019-04-16_00:00:00;0.8625494310962639
2019-04-22_23:00:00;0.8625494310962639
2019-04-23_00:00:00;0.7930389595557269
2019-04-29_23:00:00;0.7930389595557269
2019-04-30_00:00:00;0.8349251217039988
2019-05-06_23:00:00;0.8349251217039988
2019-05-07_00:00:00;0.8685454052279183
2019-05-13_23:00:00;0.8685454052279183
2019-05-14_00:00:00;0.8544691421474153
2019-05-20_23:00:00;0.8544691421474153
2019-05-21_00:00:00;0.8413493797021999
2019-05-27_23:00:00;0.8413493797021999
2019-05-28_00:00:00;0.7099518894456579
2019-06-03_23:00:00;0.7099518894456579
2019-06-04_00:00:00;0.7179322454923123
2019-06-10_23:00:00;0.7179322454923123
2019-06-11_00:00:00;0.8323696946336031
2019-06-17_23:00:00;0.8323696946336031
2019-06-18_00:00:00;0.8169086470512655
2019-06-24_23:00:00;0.8169086470512655
2019-06-25_00:00:00;0.7433294787785344
2019-07-01_23:00:00;0.7433294787785344
2019-07-02_00:00:00;0.6174711265293303
2019-07-08_23:00:00;0.6174711265293303
2019-07-09_00:00:00;0.7763787171470584
2019-07-15_23:00:00;0.7763787171470584
2019-07-16_00:00:00;0.8104558367952945
2019-07-22_23:00:00;0.8104558367952945
2019-07-23_00:00:00;0.8313989178694305
2019-07-29_23:00:00;0.8313989178694305
2019-07-30_00:00:00;0.8193641412194669
2019-08-05_23:00:00;0.8193641412194669
2019-08-06_00:00:00;0.8190357902551144
2019-08-12_23:00:00;0.8190357902551144
2019-08-13_00:00:00;0.6921067283395435
2019-08-19_23:00:00;0.6921067283395435
2019-08-20_00:00:00;0.8280583037103659
2019-08-26_23:00:00;0.8280583037103659
2019-08-27_00:00:00;0.881893585735292
2019-09-02_23:00:00;0.881893585735292
2019-09-03_00:00:00;0.7499536025811241
2019-09-09_23:00:00;0.7499536025811241
2019-09-10_00:00:00;0.7408026039659086
2019-09-16_23:00:00;0.7408026039659086
2019-09-17_00:00:00;0.8717004297114794
2019-09-23_23:00:00;0.8717004297114794
2019-09-24_00:00:00;0.8604080117635302
2019-09-30_23:00:00;0.8604080117635302
2019-10-01_00:00:00;0.8517995060459406
2019-10-07_23:00:00;0.8517995060459406
2019-10-08_00:00:00;0.8445186803146458
2019-10-14_23:00:00;0.8445186803146458
2019-10-15_00:00:00;0.8357816894370922
2019-10-21_23:00:00;0.8357816894370922
2019-10-22_00:00:00;0.8775108141676303
2019-10-28_23:00:00;0.8775108141676303
2019-10-29_00:00:00;0.8367381900723799
2019-11-04_23:00:00;0.8367381900723799
2019-11-05_00:00:00;0.9135152112153269
2019-11-11_23:00:00;0.9135152112153269
2019-11-12_00:00:00;0.9291475723442831
2019-11-18_23:00:00;0.9291475723442831
2019-11-19_00:00:00;0.946278927006153
2019-11-25_23:00:00;0.946278927006153
2019-11-26_00:00:00;0.9516181992091025
2019-12-02_23:00:00;0.9516181992091025
2019-12-03_00:00:00;0.9301469013662256
2019-12-09_23:00:00;0.9301469013662256
2019-12-10_00:00:00;0.8896026953331335
2019-12-16_23:00:00;0.8896026953331335
2019-12-17_00:00:00;0.8644338801090696
2019-12-23_23:00:00;0.8644338801090696
2019-12-24_00:00:00;0.5778976972604108
2019-12-30_23:00:00;0.5778976972604108
2019-12-31_00:00:00;0.5168957985352691
2019-12-31_23:00:00;0.5168957985352691
