2017-01-01_00:00:00;12.93
2017-02-01_00:00:00;13.09
2017-03-01_00:00:00;12.89
2017-04-01_00:00:00;12.74
2017-05-01_00:00:00;12.01
2017-06-01_00:00:00;12.44
2017-07-01_00:00:00;12.62
2017-08-01_00:00:00;12.12
2017-09-01_00:00:00;12.15
2017-10-01_00:00:00;12.54
2017-11-01_00:00:00;12.35
2017-12-01_00:00:00;12.43
