2016-01-01_00:00:00;1.0
2016-01-31_09:00:00;1.0
2016-01-31_10:00:00;0.9899298562400166
2016-03-01_19:00:00;0.9899298562400166
2016-03-01_20:00:00;0.983077528532074
2016-04-01_05:00:00;0.983077528532074
2016-04-01_06:00:00;0.948931638771211
2016-05-01_15:00:00;0.948931638771211
2016-05-01_16:00:00;0.7091464685047573
2016-06-01_01:00:00;0.7091464685047573
2016-06-01_02:00:00;0.834733893557423
2016-07-01_11:00:00;0.834733893557423
2016-07-01_12:00:00;0.8420260666249971
2016-07-31_21:00:00;0.8420260666249971
2016-07-31_22:00:00;0.980068060281964
2016-08-31_07:00:00;0.980068060281964
2016-08-31_08:00:00;0.9920133342593236
2016-09-30_17:00:00;0.9920133342593236
2016-09-30_18:00:00;0.9902308030650276
2016-10-31_03:00:00;0.9902308030650276
2016-10-31_04:00:00;0.9806931036877561
2016-11-30_13:00:00;0.9806931036877561
2016-11-30_14:00:00;0.9539551357733176
2016-12-30_23:00:00;0.9539551357733176
