2016-01-01_00:00:00;20.08
2016-02-01_00:00:00;18.84
2016-03-01_00:00:00;21.02
2016-04-01_00:00:00;22.5
2016-05-01_00:00:00;25.86
2016-06-01_00:00:00;27.25
2016-07-01_00:00:00;26.16
2016-08-01_00:00:00;25.89
2016-09-01_00:00:00;26.31
2016-10-01_00:00:00;27.89
2016-11-01_00:00:00;26.62
2016-12-01_00:00:00;30.7
